1
2
RAM
50
torre
29
2
3
Placa
50
Grafica
250
Fuente
55
3
3
SistemaOperativo
250
Monitor
100
Grafica
250
4
8
SistemaOperativo
100
Torre
50
Fuente
50
Grafica
280
Placa
100
RAM
100
Monitor
90
Pack_Teclado_Raton
25