INDEX VERSION 1.130+D:\Nueva carpeta\Curso_java\.metadata\.plugins\org.eclipse.jdt.core
202638269.index
531533494.index
3701531455.index
2492909726.index
4212195811.index
1241298325.index
3227056335.index
3421597620.index
1233919542.index
1860485910.index
1943575548.index
1845031563.index
3852737441.index
1942359185.index
1401678300.index
2899478204.index
3263897811.index
144380394.index
897659091.index
